processor/ALU/tests/test-or/TestOr.vcd
$date
	Sun Oct 13 20:55:21 2024
$end
$version
	Icarus Verilog
$end
$timescale
	1s
$end
$scope module TestOr $end
$var wire 8 ! result [7:0] $end
$var reg 8 " data1 [7:0] $end
$var reg 8 # data2 [7:0] $end
$scope module orUnit $end
$var wire 8 $ data1 [7:0] $end
$var wire 8 % data2 [7:0] $end
$var wire 8 & result [7:0] $end
$upscope $end
$upscope $end
$enddefinitions $end
$comment Show the parameter values. $end
$dumpall
$end
#0
$dumpvars
bx &
bx %
bx $
bx #
bx "
bx !
$end
#1
b11 #
b11 %
b11001 "
b11001 $
#2
b11011 !
b11011 &
#4
b1000 #
b1000 %
b1 "
b1 $
#5
b1001 !
b1001 &
#8
b11111011 #
b11111011 %
b10 "
b10 $
#9
b11111011 !
b11111011 &
#12
b11111110 #
b11111110 %
b110 "
b110 $
#13
b11111110 !
b11111110 &
